"Friends/SubPanelCreateUser3.res"
{
	"ProgressBar"
	{
		"ControlName"		"ProgressBar"
		"fieldName"		"ProgressBar"
		"xpos"		"67"
		"ypos"		"51"
		"wide"		"300"
		"tall"		"24"
		"autoResize"		"0"
		"pinCorner"		"0"
		"visible"		"1"
		"enabled"		"1"
		"tabPosition"		"0"
	}
	"InfoText"
	{
		"ControlName"		"Label"
		"fieldName"		"InfoText"
		"xpos"		"30"
		"ypos"		"107"
		"wide"		"400"
		"tall"		"100"
		"autoResize"		"0"
		"pinCorner"		"0"
		"visible"		"1"
		"enabled"		"1"
		"tabPosition"		"0"
		"labelText"		""
		"textAlignment"		"west"
		"dulltext"		"0"
		"brighttext"		"0"
	}
	"ProgressText"
	{
		"ControlName"		"Label"
		"fieldName"		"ProgressText"
		"xpos"		"21"
		"ypos"		"15"
		"wide"		"400"
		"tall"		"24"
		"autoResize"		"0"
		"pinCorner"		"0"
		"visible"		"1"
		"enabled"		"1"
		"tabPosition"		"0"
		"labelText"		"Create user failed"
		"textAlignment"		"west"
		"dulltext"		"0"
		"brighttext"		"0"
	}
}
